[
    {
        "img": "gpx_pics\/PXL_20221112_104434506.jpg",
        "gps": [
            50.2469666667,
            7.5815166667
        ],
        "off": [
            50,
            -50
        ]
    },
    {
        "img": "gpx_pics\/PXL_20221009_104854670.jpg",
        "gps": [
            50.0582027778,
            7.765875
        ],
        "off": [
            150,
            50
        ]
    },
    {
        "img": "gpx_pics\/PXL_20221010_102946181.jpg",
        "gps": [
            50.1266916667,
            8.8909277778
        ],
        "off": [
            150,
            50
        ]
    },
    {
        "img": "gpx_pics\/PXL_20221113_084752516.jpg",
        "gps": [
            50.2021277778,
            7.6262805556
        ],
        "off": [
            -150,
            150
        ]
    },
    {
        "img": "gpx_pics\/PXL_20221010_091607488.jpg",
        "gps": [
            50.1064527778,
            8.9152472222
        ],
        "off": [
            150,
            50
        ]
    },
    {
        "img": "gpx_pics\/PXL_20220731_075546644.jpg",
        "gps": [
            50.2210888889,
            8.2698666667
        ],
        "off": [
            150,
            50
        ]
    },
    {
        "img": "gpx_pics\/PXL_20221030_091528899.jpg",
        "gps": [
            49.8127027778,
            7.8550861111
        ],
        "off": [
            150,
            50
        ]
    },
    {
        "img": "gpx_pics\/PXL_20221113_105247867.jpg",
        "gps": [
            50.1688305556,
            7.6885916667
        ],
        "off": [
            50,
            0
        ]
    },
    {
        "img": "gpx_pics\/PXL_20220924_074937431.jpg",
        "gps": [
            50.0369916667,
            8.2339805556
        ],
        "off": [
            -90,
            300
        ]
    },
    {
        "img": "gpx_pics\/PXL_20221008_092301633.jpg",
        "gps": [
            49.9799361111,
            7.9121194444
        ],
        "off": [
            0,
            250
        ]
    },
    {
        "img": "gpx_pics\/PXL_20221015_084516905.jpg",
        "gps": [
            50.0803888889,
            7.7651222222
        ],
        "off": [
            150,
            50
        ]
    },
    {
        "img": "gpx_pics\/PXL_20221009_080013489~2.jpg",
        "gps": [
            50.0020666667,
            7.8559472222
        ],
        "off": [
            150,
            50
        ]
    },
    {
        "img": "gpx_pics\/PXL_20221214_161444473.jpg",
        "gps": [
            49.9993333333,
            8.2751527778
        ],
        "off": [
            -90,
            300
        ]
    },
    {
        "img": "gpx_pics\/PXL_20221022_103047348.jpg",
        "gps": [
            50.1522388889,
            7.7133805556
        ],
        "off": [
            150,
            50
        ]
    },
    {
        "img": "gpx_pics\/PXL_20221022_082451507.jpg",
        "gps": [
            50.1350972222,
            7.7265777778
        ],
        "off": [
            150,
            100
        ]
    },
    {
        "img": "gpx_pics\/PXL_20221009_090304335.jpg",
        "gps": [
            50.027575,
            7.8166111111
        ],
        "off": [
            150,
            50
        ]
    },
    {
        "img": "gpx_pics\/PXL_20221022_080056206.jpg",
        "gps": [
            50.1267333333,
            7.7274527778
        ],
        "off": [
            -200,
            100
        ]
    },
    {
        "img": "gpx_pics\/PXL_20220702_085420932.jpg",
        "gps": [
            50.0006055556,
            8.0419972222
        ],
        "off": [
            230,
            140
        ]
    },
    {
        "img": "gpx_pics\/PXL_20221111_114102386.jpg",
        "gps": [
            50.3622944444,
            7.6127861111
        ],
        "off": [
            150,
            50
        ]
    },
    {
        "img": "gpx_pics\/PXL_20220723_102647477.jpg",
        "gps": [
            50.1864527778,
            8.4625638889
        ],
        "off": [
            150,
            50
        ]
    },
    {
        "img": "gpx_pics\/20210814_085414.jpg",
        "gps": [
            49.8542157436,
            8.3542352526
        ],
        "off": [
            150,
            50
        ]
    },
    {
        "img": "gpx_pics\/20210814_121742.jpg",
        "gps": [
            49.8828593558,
            8.3324534762
        ],
        "off": [
            150,
            50
        ]
    },
    {
        "img": "gpx_pics\/20210821_081748.jpg",
        "gps": [
            49.9594844209,
            8.0351518627
        ],
        "off": [
            150,
            50
        ]
    },
    {
        "img": "gpx_pics\/20210904_100611.jpg",
        "gps": [
            49.9821343277,
            7.8270993439
        ],
        "off": [
            150,
            50
        ]
    },
    {
        "img": "gpx_pics\/20210911_102405.jpg",
        "gps": [
            49.8340397937,
            8.1014527788
        ],
        "off": [
            150,
            50
        ]
    },
    {
        "img": "gpx_pics\/20220219_104323.jpg",
        "gps": [
            49.9636543095,
            8.0628477339
        ],
        "off": [
            150,
            50
        ]
    },
    {
        "img": "gpx_pics\/20220326_115402.jpg",
        "gps": [
            51.3135277966,
            9.4012237627
        ],
        "off": [
            150,
            50
        ]
    },
    {
        "img": "gpx_pics\/20220417_104220.jpg",
        "gps": [
            49.8862931948,
            7.8707143762
        ],
        "off": [
            150,
            50
        ]
    },
    {
        "img": "gpx_pics\/20220424_120411~2.jpg",
        "gps": [
            49.9243546804,
            7.8905237762
        ],
        "off": [
            150,
            50
        ]
    },
    {
        "img": "gpx_pics\/20220514_112556.jpg",
        "gps": [
            50.0920651099,
            8.0969426492
        ],
        "off": [
            150,
            50
        ]
    },
    {
        "img": "gpx_pics\/20220528_112226~2.jpg",
        "gps": [
            50.0122984178,
            8.3959415743
        ],
        "off": [
            150,
            50
        ]
    },
    {
        "img": "gpx_pics\/20220604_110531~2.jpg",
        "gps": [
            49.8174345299,
            7.8314258762
        ],
        "off": [
            150,
            50
        ]
    },
    {
        "img": "gpx_pics\/20220604_120426.jpg",
        "gps": [
            49.807265207,
            7.838328905
        ],
        "off": [
            150,
            50
        ]
    },
    {
        "img": "gpx_pics\/building_oppenheim.jpg",
        "gps": [
            49.8531361961,
            8.3548078644
        ],
        "off": [
            150,
            50
        ]
    },
    {
        "img": "gpx_pics\/friedhof.jpg",
        "gps": [
            49.9163885993,
            8.3403018539
        ],
        "off": [
            150,
            50
        ]
    },
    {
        "img": "gpx_pics\/corner_turn.jpg",
        "gps": [
            49.8896267316,
            8.3356528221
        ],
        "off": [
            150,
            50
        ]
    },
    {
        "img": "gpx_pics\/tower.jpg",
        "gps": [
            49.7069999429,
            8.3207202798
        ],
        "off": [
            150,
            50
        ]
    },
    {
        "img": "gpx_pics\/bird.jpg",
        "gps": [
            49.6819871301,
            8.3029521325
        ],
        "off": [
            150,
            50
        ]
    },
    {
        "img": "gpx_pics\/sun.jpg",
        "gps": [
            49.7739907235,
            8.3377002536
        ],
        "off": [
            150,
            50
        ]
    },
    {
        "img": "gpx_pics\/sun1.jpg",
        "gps": [
            49.6943533915,
            8.3136375097
        ],
        "off": [
            150,
            50
        ]
    }
]